<?xml version="1.0" encoding="UTF-8" standalone="no"?>
<!DOCTYPE svg PUBLIC "-//W3C//DTD SVG 1.1//EN" "http://www.w3.org/Graphics/SVG/1.1/DTD/svg11.dtd">
<svg width="100%" height="100%" viewBox="0 0 800 800" version="1.1" xmlns="http://www.w3.org/2000/svg" xmlns:xlink="http://www.w3.org/1999/xlink" xml:space="preserve" xmlns:serif="http://www.serif.com/" style="fill-rule:evenodd;clip-rule:evenodd;stroke-linecap:round;stroke-linejoin:round;stroke-miterlimit:1.5;">
    <g transform="matrix(1,0,0,1,-894,-10)">
        <g id="OPS" transform="matrix(1,0,0,1,894,10)">
            <rect x="0" y="0" width="800" height="800" style="fill:none;"/>
            <circle cx="400" cy="400" r="380" style="fill:rgb(232,137,92);stroke:black;stroke-width:1px;"/>
            <g id="_-OPS-" serif:id="(OPS)" transform="matrix(0.876841,0,0,0.876841,-856.575,243.895)">
                <text x="1005.3px" y="316.841px" style="font-family:'Marion-Bold', 'Marion', serif;font-weight:700;font-size:420px;">OPS</text>
            </g>
        </g>
    </g>
</svg>
